%YAML 1.1
%TAG !u! tag:unity3d.com,2011:
--- !u!114 &11400000
MonoBehaviour:
  m_ObjectHideFlags: 0
  m_CorrespondingSourceObject: {fileID: 0}
  m_PrefabInstance: {fileID: 0}
  m_PrefabAsset: {fileID: 0}
  m_GameObject: {fileID: 0}
  m_Enabled: 1
  m_EditorHideFlags: 0
  m_Script: {fileID: 11500000, guid: 0d86326fe1b84744f8e0281339b916b3, type: 3}
  m_Name: InteractableItem_Fish
  m_EditorClassIdentifier: 
  toyObject: {fileID: 1787821079720028448, guid: 53edbe3a615ba534484d5efea511c243,
    type: 3}
  placedScale: 0.3
  minRequiredCollectiveNeonStateTime: 10
  itemInventoryIcon: {fileID: -6247525635054342963, guid: cfa6083e1ba86a545af85b6c6df673a0,
    type: 3}
  isEnableInInventory: 1
  isNew: 1
  isOnGround: 0
