%YAML 1.1
%TAG !u! tag:unity3d.com,2011:
--- !u!1001 &2642626782355816259
PrefabInstance:
  m_ObjectHideFlags: 0
  serializedVersion: 2
  m_Modification:
    m_TransformParent: {fileID: 0}
    m_Modifications:
    - target: {fileID: 3398773222972201198, guid: b5e4dbba645f2a44ebdff0697e0033e1,
        type: 3}
      propertyPath: m_Color.r
      value: 1
      objectReference: {fileID: 0}
    - target: {fileID: 3398773222972201198, guid: b5e4dbba645f2a44ebdff0697e0033e1,
        type: 3}
      propertyPath: m_Color.g
      value: 1
      objectReference: {fileID: 0}
    - target: {fileID: 3398773222972201198, guid: b5e4dbba645f2a44ebdff0697e0033e1,
        type: 3}
      propertyPath: m_Color.b
      value: 1
      objectReference: {fileID: 0}
    - target: {fileID: 3398773222972201198, guid: b5e4dbba645f2a44ebdff0697e0033e1,
        type: 3}
      propertyPath: m_Sprite
      value: 
      objectReference: {fileID: 21300000, guid: db447b3c4284468479b2c91dc71049ba,
        type: 3}
    - target: {fileID: 3797198117427004281, guid: b5e4dbba645f2a44ebdff0697e0033e1,
        type: 3}
      propertyPath: m_LocalPosition.x
      value: 0
      objectReference: {fileID: 0}
    - target: {fileID: 3797198117427004281, guid: b5e4dbba645f2a44ebdff0697e0033e1,
        type: 3}
      propertyPath: m_LocalPosition.y
      value: 0
      objectReference: {fileID: 0}
    - target: {fileID: 3797198117427004281, guid: b5e4dbba645f2a44ebdff0697e0033e1,
        type: 3}
      propertyPath: m_LocalPosition.z
      value: 0
      objectReference: {fileID: 0}
    - target: {fileID: 3797198117427004281, guid: b5e4dbba645f2a44ebdff0697e0033e1,
        type: 3}
      propertyPath: m_LocalRotation.x
      value: 0
      objectReference: {fileID: 0}
    - target: {fileID: 3797198117427004281, guid: b5e4dbba645f2a44ebdff0697e0033e1,
        type: 3}
      propertyPath: m_LocalRotation.y
      value: 0
      objectReference: {fileID: 0}
    - target: {fileID: 3797198117427004281, guid: b5e4dbba645f2a44ebdff0697e0033e1,
        type: 3}
      propertyPath: m_LocalRotation.z
      value: 0
      objectReference: {fileID: 0}
    - target: {fileID: 3797198117427004281, guid: b5e4dbba645f2a44ebdff0697e0033e1,
        type: 3}
      propertyPath: m_LocalRotation.w
      value: 1
      objectReference: {fileID: 0}
    - target: {fileID: 3797198117427004281, guid: b5e4dbba645f2a44ebdff0697e0033e1,
        type: 3}
      propertyPath: m_RootOrder
      value: 0
      objectReference: {fileID: 0}
    - target: {fileID: 3797198117427004281, guid: b5e4dbba645f2a44ebdff0697e0033e1,
        type: 3}
      propertyPath: m_LocalEulerAnglesHint.x
      value: 0
      objectReference: {fileID: 0}
    - target: {fileID: 3797198117427004281, guid: b5e4dbba645f2a44ebdff0697e0033e1,
        type: 3}
      propertyPath: m_LocalEulerAnglesHint.y
      value: 0
      objectReference: {fileID: 0}
    - target: {fileID: 3797198117427004281, guid: b5e4dbba645f2a44ebdff0697e0033e1,
        type: 3}
      propertyPath: m_LocalEulerAnglesHint.z
      value: 0
      objectReference: {fileID: 0}
    - target: {fileID: 3797198117427004281, guid: b5e4dbba645f2a44ebdff0697e0033e1,
        type: 3}
      propertyPath: m_AnchoredPosition.x
      value: 0
      objectReference: {fileID: 0}
    - target: {fileID: 3797198117427004281, guid: b5e4dbba645f2a44ebdff0697e0033e1,
        type: 3}
      propertyPath: m_AnchoredPosition.y
      value: 0
      objectReference: {fileID: 0}
    - target: {fileID: 3797198117427004281, guid: b5e4dbba645f2a44ebdff0697e0033e1,
        type: 3}
      propertyPath: m_SizeDelta.x
      value: 0
      objectReference: {fileID: 0}
    - target: {fileID: 3797198117427004281, guid: b5e4dbba645f2a44ebdff0697e0033e1,
        type: 3}
      propertyPath: m_SizeDelta.y
      value: 0
      objectReference: {fileID: 0}
    - target: {fileID: 3797198117427004281, guid: b5e4dbba645f2a44ebdff0697e0033e1,
        type: 3}
      propertyPath: m_AnchorMin.x
      value: 0
      objectReference: {fileID: 0}
    - target: {fileID: 3797198117427004281, guid: b5e4dbba645f2a44ebdff0697e0033e1,
        type: 3}
      propertyPath: m_AnchorMin.y
      value: 0
      objectReference: {fileID: 0}
    - target: {fileID: 3797198117427004281, guid: b5e4dbba645f2a44ebdff0697e0033e1,
        type: 3}
      propertyPath: m_AnchorMax.x
      value: 0
      objectReference: {fileID: 0}
    - target: {fileID: 3797198117427004281, guid: b5e4dbba645f2a44ebdff0697e0033e1,
        type: 3}
      propertyPath: m_AnchorMax.y
      value: 0
      objectReference: {fileID: 0}
    - target: {fileID: 3797198117427004281, guid: b5e4dbba645f2a44ebdff0697e0033e1,
        type: 3}
      propertyPath: m_Pivot.x
      value: 0.5
      objectReference: {fileID: 0}
    - target: {fileID: 3797198117427004281, guid: b5e4dbba645f2a44ebdff0697e0033e1,
        type: 3}
      propertyPath: m_Pivot.y
      value: 0.5
      objectReference: {fileID: 0}
    - target: {fileID: 7384068572655956033, guid: b5e4dbba645f2a44ebdff0697e0033e1,
        type: 3}
      propertyPath: interactableItem
      value: 
      objectReference: {fileID: 11400000, guid: 8c421b878be89cb4b9a14cefa88f7a81,
        type: 2}
    - target: {fileID: 8943073822382645832, guid: b5e4dbba645f2a44ebdff0697e0033e1,
        type: 3}
      propertyPath: m_Name
      value: Coin - Item UI Option Variant
      objectReference: {fileID: 0}
    m_RemovedComponents: []
  m_SourcePrefab: {fileID: 100100000, guid: b5e4dbba645f2a44ebdff0697e0033e1, type: 3}
