%YAML 1.1
%TAG !u! tag:unity3d.com,2011:
--- !u!1001 &6845239034761327227
PrefabInstance:
  m_ObjectHideFlags: 0
  serializedVersion: 2
  m_Modification:
    m_TransformParent: {fileID: 0}
    m_Modifications:
    - target: {fileID: 2216974738607205001, guid: 7eb40d02aa819be4e97aa4639296f189,
        type: 3}
      propertyPath: petalIndex
      value: 3
      objectReference: {fileID: 0}
    - target: {fileID: 3222956558082391432, guid: 7eb40d02aa819be4e97aa4639296f189,
        type: 3}
      propertyPath: m_Sprite
      value: 
      objectReference: {fileID: 21300000, guid: 12600067b12d3b94ca39806d5f44817b,
        type: 3}
    - target: {fileID: 3630388849192578319, guid: 7eb40d02aa819be4e97aa4639296f189,
        type: 3}
      propertyPath: sprites.Array.data[0]
      value: 
      objectReference: {fileID: 21300000, guid: 12600067b12d3b94ca39806d5f44817b,
        type: 3}
    - target: {fileID: 3630388849192578319, guid: 7eb40d02aa819be4e97aa4639296f189,
        type: 3}
      propertyPath: sprites.Array.data[1]
      value: 
      objectReference: {fileID: 21300000, guid: 0408534bd261fa746b3a27866e5f1fa7,
        type: 3}
    - target: {fileID: 3630388849192578319, guid: 7eb40d02aa819be4e97aa4639296f189,
        type: 3}
      propertyPath: sprites.Array.data[2]
      value: 
      objectReference: {fileID: 21300000, guid: c99edb2c42636964d874f79b269e56ad,
        type: 3}
    - target: {fileID: 4398503721438250385, guid: 7eb40d02aa819be4e97aa4639296f189,
        type: 3}
      propertyPath: m_LocalPosition.x
      value: 0
      objectReference: {fileID: 0}
    - target: {fileID: 4398503721438250385, guid: 7eb40d02aa819be4e97aa4639296f189,
        type: 3}
      propertyPath: m_LocalPosition.y
      value: 0
      objectReference: {fileID: 0}
    - target: {fileID: 4398503721438250385, guid: 7eb40d02aa819be4e97aa4639296f189,
        type: 3}
      propertyPath: m_LocalPosition.z
      value: 0
      objectReference: {fileID: 0}
    - target: {fileID: 4398503721438250385, guid: 7eb40d02aa819be4e97aa4639296f189,
        type: 3}
      propertyPath: m_LocalRotation.x
      value: 0
      objectReference: {fileID: 0}
    - target: {fileID: 4398503721438250385, guid: 7eb40d02aa819be4e97aa4639296f189,
        type: 3}
      propertyPath: m_LocalRotation.y
      value: 0
      objectReference: {fileID: 0}
    - target: {fileID: 4398503721438250385, guid: 7eb40d02aa819be4e97aa4639296f189,
        type: 3}
      propertyPath: m_LocalRotation.z
      value: 0
      objectReference: {fileID: 0}
    - target: {fileID: 4398503721438250385, guid: 7eb40d02aa819be4e97aa4639296f189,
        type: 3}
      propertyPath: m_LocalRotation.w
      value: 1
      objectReference: {fileID: 0}
    - target: {fileID: 4398503721438250385, guid: 7eb40d02aa819be4e97aa4639296f189,
        type: 3}
      propertyPath: m_RootOrder
      value: 0
      objectReference: {fileID: 0}
    - target: {fileID: 4398503721438250385, guid: 7eb40d02aa819be4e97aa4639296f189,
        type: 3}
      propertyPath: m_LocalEulerAnglesHint.x
      value: 0
      objectReference: {fileID: 0}
    - target: {fileID: 4398503721438250385, guid: 7eb40d02aa819be4e97aa4639296f189,
        type: 3}
      propertyPath: m_LocalEulerAnglesHint.y
      value: 0
      objectReference: {fileID: 0}
    - target: {fileID: 4398503721438250385, guid: 7eb40d02aa819be4e97aa4639296f189,
        type: 3}
      propertyPath: m_LocalEulerAnglesHint.z
      value: 0
      objectReference: {fileID: 0}
    - target: {fileID: 7263013351051322498, guid: 7eb40d02aa819be4e97aa4639296f189,
        type: 3}
      propertyPath: m_Name
      value: Petal 4 Variant
      objectReference: {fileID: 0}
    - target: {fileID: 7263013351051322498, guid: 7eb40d02aa819be4e97aa4639296f189,
        type: 3}
      propertyPath: m_Layer
      value: 9
      objectReference: {fileID: 0}
    - target: {fileID: 8415723038033505254, guid: 7eb40d02aa819be4e97aa4639296f189,
        type: 3}
      propertyPath: m_Points.m_Paths.Array.data[0].Array.size
      value: 4
      objectReference: {fileID: 0}
    - target: {fileID: 8415723038033505254, guid: 7eb40d02aa819be4e97aa4639296f189,
        type: 3}
      propertyPath: m_SpriteTilingProperty.oldSize.x
      value: 1.57
      objectReference: {fileID: 0}
    - target: {fileID: 8415723038033505254, guid: 7eb40d02aa819be4e97aa4639296f189,
        type: 3}
      propertyPath: m_SpriteTilingProperty.oldSize.y
      value: 1.87
      objectReference: {fileID: 0}
    - target: {fileID: 8415723038033505254, guid: 7eb40d02aa819be4e97aa4639296f189,
        type: 3}
      propertyPath: m_Points.m_Paths.Array.data[0].Array.data[0].x
      value: -1.1603551
      objectReference: {fileID: 0}
    - target: {fileID: 8415723038033505254, guid: 7eb40d02aa819be4e97aa4639296f189,
        type: 3}
      propertyPath: m_Points.m_Paths.Array.data[0].Array.data[0].y
      value: -0.020056719
      objectReference: {fileID: 0}
    - target: {fileID: 8415723038033505254, guid: 7eb40d02aa819be4e97aa4639296f189,
        type: 3}
      propertyPath: m_Points.m_Paths.Array.data[0].Array.data[1].x
      value: 0.21265975
      objectReference: {fileID: 0}
    - target: {fileID: 8415723038033505254, guid: 7eb40d02aa819be4e97aa4639296f189,
        type: 3}
      propertyPath: m_Points.m_Paths.Array.data[0].Array.data[1].y
      value: -1.2022356
      objectReference: {fileID: 0}
    - target: {fileID: 8415723038033505254, guid: 7eb40d02aa819be4e97aa4639296f189,
        type: 3}
      propertyPath: m_Points.m_Paths.Array.data[0].Array.data[2].x
      value: 1.2333155
      objectReference: {fileID: 0}
    - target: {fileID: 8415723038033505254, guid: 7eb40d02aa819be4e97aa4639296f189,
        type: 3}
      propertyPath: m_Points.m_Paths.Array.data[0].Array.data[2].y
      value: 0.09278005
      objectReference: {fileID: 0}
    - target: {fileID: 8415723038033505254, guid: 7eb40d02aa819be4e97aa4639296f189,
        type: 3}
      propertyPath: m_Points.m_Paths.Array.data[0].Array.data[3].x
      value: -0.071620405
      objectReference: {fileID: 0}
    - target: {fileID: 8415723038033505254, guid: 7eb40d02aa819be4e97aa4639296f189,
        type: 3}
      propertyPath: m_Points.m_Paths.Array.data[0].Array.data[3].y
      value: 1.2226866
      objectReference: {fileID: 0}
    m_RemovedComponents: []
  m_SourcePrefab: {fileID: 100100000, guid: 7eb40d02aa819be4e97aa4639296f189, type: 3}
