%YAML 1.1
%TAG !u! tag:unity3d.com,2011:
--- !u!221 &22100000
AnimatorOverrideController:
  m_ObjectHideFlags: 0
  m_CorrespondingSourceObject: {fileID: 0}
  m_PrefabInstance: {fileID: 0}
  m_PrefabAsset: {fileID: 0}
  m_Name: Yellow Square BG Animator Override Controller
  m_Controller: {fileID: 9100000, guid: 2e1526df65a90814db29269533f1b5c7, type: 2}
  m_Clips:
  - m_OriginalClip: {fileID: 7400000, guid: 8621539c88d369244a78b46ebd318eb5, type: 2}
    m_OverrideClip: {fileID: 7400000, guid: e6958b56ed1d39c42a8a49f0495b825c, type: 2}
